Ranking Kinases
…
Creating Rankings

Each kinase type is then ranked based on the average proportional position. This is provides a relative position for the kinases total, allowing for some information on the importance at each stage of the interaction and a layout for the visualisation. For scatter plot purposes this has been transformed into a negative quantity (in order to have the end of the process at the bottom of the page, note this is not the case in the histogram).

kinase_ranks <- kinase_path %>% 
  group_by(Name) %>% 
  summarise(ranking = mean(Position_Prop)*-1, 
            n = n())
kinase_ranks

## # A tibble: 124 x 3
##    Name  ranking     n
##    <chr>   <dbl> <int>
##  1 Abl1   -0.611   968
##  2 Akt1   -0.773  5702
##  3 Akt2   -1         4
##  4 Akt3   -0.49     25
##  5 Atm    -0.787   263
##  6 Atr    -0.948   122
##  7 Aurka  -1       100
##  8 Aurkb  -1         4
##  9 Braf   -0.501  1522
## 10 Brsk1  -1         1
## # ... with 114 more rows
…
